%YAML 1.1
%TAG !u! tag:unity3d.com,2011:
--- !u!687078895 &4343727234628468602
SpriteAtlas:
  m_ObjectHideFlags: 0
  m_CorrespondingSourceObject: {fileID: 0}
  m_PrefabInstance: {fileID: 0}
  m_PrefabAsset: {fileID: 0}
  m_Name: SpritesAtlasC
  m_EditorData:
    serializedVersion: 2
    textureSettings:
      serializedVersion: 2
      anisoLevel: 1
      compressionQuality: 50
      maxTextureSize: 2048
      textureCompression: 0
      filterMode: 1
      generateMipMaps: 0
      readable: 0
      crunchedCompression: 0
      sRGB: 1
    platformSettings:
    - serializedVersion: 3
      m_BuildTarget: DefaultTexturePlatform
      m_MaxTextureSize: 4096
      m_ResizeAlgorithm: 0
      m_TextureFormat: -1
      m_TextureCompression: 1
      m_CompressionQuality: 50
      m_CrunchedCompression: 0
      m_AllowsAlphaSplitting: 0
      m_Overridden: 0
      m_AndroidETC2FallbackOverride: 0
      m_ForceMaximumCompressionQuality_BC6H_BC7: 0
    packingSettings:
      serializedVersion: 2
      padding: 4
      blockOffset: 1
      allowAlphaSplitting: 0
      enableRotation: 1
      enableTightPacking: 1
    secondaryTextureSettings: {}
    variantMultiplier: 1
    packables:
    - {fileID: 102900000, guid: e3b03252332f18543862a8dff7beee79, type: 3}
    bindAsDefault: 1
    isAtlasV2: 0
    cachedData: {fileID: 0}
  m_MasterAtlas: {fileID: 0}
  m_PackedSprites:
  - {fileID: 21300000, guid: a79e3110804c1e546b4aee33cce12547, type: 3}
  - {fileID: 21300000, guid: 82152410371d69547957751be822676d, type: 3}
  - {fileID: 21300000, guid: a2c7f020e41dcfa428aafaf9d683aff0, type: 3}
  - {fileID: 21300000, guid: af94c32093d67744d848dfdd3c2d07a7, type: 3}
  - {fileID: 21300000, guid: 3a6487307a105c747ba9477c348f4dbc, type: 3}
  - {fileID: 21300000, guid: 0ace0340142e81b40b3cfece49d41b57, type: 3}
  - {fileID: 21300000, guid: d0bda66090ffd8a4ab13ea2c2664a38c, type: 3}
  - {fileID: 21300000, guid: e95107606208312498f8657286548637, type: 3}
  - {fileID: 21300000, guid: edbfa860e1237c642a6d089182f44ee1, type: 3}
  - {fileID: 21300000, guid: 413c2d60b6734244ea0284e636f88a0b, type: 3}
  - {fileID: 21300000, guid: 5fc874705452fda4fabfe0c4fd519600, type: 3}
  - {fileID: 21300000, guid: e44631808d53f36458e92c6bacf8d1ca, type: 3}
  - {fileID: 21300000, guid: 6e7e2990e154e4f4498503a8f715018c, type: 3}
  - {fileID: 21300000, guid: b3cbd7a0d108c254cbb7b5a540cae343, type: 3}
  - {fileID: 21300000, guid: 56b88aa01f941a947b218499d5baff3b, type: 3}
  - {fileID: 21300000, guid: a1c1bca0f5d738f4c81b63628333b7cb, type: 3}
  - {fileID: 21300000, guid: e7cceca067d3dfc47b6eef260f1cfd97, type: 3}
  - {fileID: 21300000, guid: 6f3d31b0903e069428c7932abe8fb07a, type: 3}
  - {fileID: 21300000, guid: 989cc2b0bb3c8b74b87f685aa3a7d33a, type: 3}
  - {fileID: 21300000, guid: 2e7fd3d04b8e1c34eb9eb1a9ac42f0c0, type: 3}
  - {fileID: 21300000, guid: 5ca100e06eaed1945a7d9ebaf55c915e, type: 3}
  - {fileID: 21300000, guid: 582864f03d1b615429d228bf4bb0cba3, type: 3}
  - {fileID: 21300000, guid: 1dd8ef0135f60a347b88185bd255c680, type: 3}
  - {fileID: 21300000, guid: dd126d11a53f343499580d369da1a5ed, type: 3}
  - {fileID: 21300000, guid: 3e93e221d729a4a4e8ccc9ef490ffb80, type: 3}
  - {fileID: 21300000, guid: dbb21421d5e49a34cb9e317c070534cd, type: 3}
  - {fileID: 21300000, guid: 16bd242137a26a34a8f9fa83960e4b9f, type: 3}
  - {fileID: 21300000, guid: 63b6b831f8c63364aad95f4894a4cb1d, type: 3}
  - {fileID: 21300000, guid: aea405415f41c444081c1e24e35b5eea, type: 3}
  - {fileID: 21300000, guid: 94aa7741fb199df488011283d291214e, type: 3}
  - {fileID: 21300000, guid: 4ce5184134bc64744867494df4e43345, type: 3}
  - {fileID: 21300000, guid: b76231612e75b6048aeabafe30485e09, type: 3}
  - {fileID: 21300000, guid: 12453261af93a2c4284d2fb38297b4cb, type: 3}
  - {fileID: 21300000, guid: e52c4f61bf3f9884a84bf43225de8f71, type: 3}
  - {fileID: 21300000, guid: 271542810a218ce45b2d86029557ca9c, type: 3}
  - {fileID: 21300000, guid: e45bae81ba359544d9cde48ca23a2ee4, type: 3}
  - {fileID: 21300000, guid: fa1f0ea101ef1894b8de62e22fef516e, type: 3}
  - {fileID: 21300000, guid: 7319fbb149a07354eb3247cda5662cfd, type: 3}
  - {fileID: 21300000, guid: 537e4fc119d04e144a17b306e3d6402d, type: 3}
  - {fileID: 21300000, guid: 34695912b42fd9141917e70795441e80, type: 3}
  - {fileID: 21300000, guid: 7dab042225d8df143a36848b85d5808d, type: 3}
  - {fileID: 21300000, guid: bfcb352299aa9fb4db83dea281637f40, type: 3}
  - {fileID: 21300000, guid: 712e5f22764ee8440bb65083c6f41f43, type: 3}
  - {fileID: 21300000, guid: edba0d3217c107948bd6ea9c2c6e19f5, type: 3}
  - {fileID: 21300000, guid: e34ba042a5f9f2d43b680064190e3634, type: 3}
  - {fileID: 21300000, guid: d689508266638644386a7f31557652e3, type: 3}
  - {fileID: 21300000, guid: a6020382f72844a4dadb19652e666055, type: 3}
  - {fileID: 21300000, guid: c0210582cb5a091429ab15272459f722, type: 3}
  - {fileID: 21300000, guid: c1c4f3a2a1949bd4ea85fa4db5e6fba8, type: 3}
  - {fileID: 21300000, guid: b21a73b252295e143a4294a0672d00df, type: 3}
  - {fileID: 21300000, guid: 902d48c23540f1e4e8ec35330d158458, type: 3}
  - {fileID: 21300000, guid: 56a929d2fecbaf544a53d9a8aad814ca, type: 3}
  - {fileID: 21300000, guid: 562b7fd28ad3c104f8c6e21a99652b6d, type: 3}
  - {fileID: 21300000, guid: 385358e2dfeaadb45937d259f038cfdb, type: 3}
  - {fileID: 21300000, guid: 779d5ce2cb41aaa4dab3623d9cc6c4b3, type: 3}
  - {fileID: 21300000, guid: 6ea7b0f298ecc3e4dbc9f05ded2c7493, type: 3}
  - {fileID: 21300000, guid: c87b8bf2fcccd3b4a85dfad6b93d4142, type: 3}
  - {fileID: 21300000, guid: e8d273031599c474fa9f5c36830ad72b, type: 3}
  - {fileID: 21300000, guid: 04031c03eb56f124aa2575810ad9ba27, type: 3}
  - {fileID: 21300000, guid: 7cf70f03ca5dc594b85cc89ebc4c0db3, type: 3}
  - {fileID: 21300000, guid: 96207b23f1adc164c8075b783da13c90, type: 3}
  - {fileID: 21300000, guid: 9c320033abf1cee42bc6df411f29732f, type: 3}
  - {fileID: 21300000, guid: ca621333f9f3c3642964b294601d24b5, type: 3}
  - {fileID: 21300000, guid: e7cc13336745f274a9dbda376be15ee4, type: 3}
  - {fileID: 21300000, guid: 7c2eb35309d2b6a43856d30f319042f1, type: 3}
  - {fileID: 21300000, guid: cc5793634dff9904b8dc32c3bd3cd1fc, type: 3}
  - {fileID: 21300000, guid: a30d57631157e194b9888dadfd6adc63, type: 3}
  - {fileID: 21300000, guid: 7972158378ccf6b478c31b8b44e190dd, type: 3}
  - {fileID: 21300000, guid: b01118833dfdf134ca15ebf8a0737725, type: 3}
  - {fileID: 21300000, guid: cccc6a838914ff845a5a5d052dc07b37, type: 3}
  - {fileID: 21300000, guid: a4d93b835edf3dc4bb8d537c1ec13b25, type: 3}
  - {fileID: 21300000, guid: 5563cb83bda64eb458e6c97677b97735, type: 3}
  - {fileID: 21300000, guid: 0e84a4b3610cbe44e88af798d5a019a2, type: 3}
  - {fileID: 21300000, guid: 1737e5c3586682645a76bf28774a044b, type: 3}
  - {fileID: 21300000, guid: 3d0059d3c3ecf6e40861f7a643248e85, type: 3}
  - {fileID: 21300000, guid: 6d67a2e3a3a09bf4ba1e4ab941d267e2, type: 3}
  - {fileID: 21300000, guid: e063c3f3afd69cf42b650b9d91ae5d57, type: 3}
  - {fileID: 21300000, guid: 472e94f3ce93ee04581a7d5bb35866ca, type: 3}
  - {fileID: 21300000, guid: 15ab37f3de308274d968a5191b0590d2, type: 3}
  - {fileID: 21300000, guid: a9a8e60472afa934cb339a87d20d69b9, type: 3}
  - {fileID: 21300000, guid: c67b2c24e1b94ab418ba9d8665eaf70c, type: 3}
  - {fileID: 21300000, guid: 3ce918346c9931142b12cd6ee6c3df8b, type: 3}
  - {fileID: 21300000, guid: d2c38244a404e5c42aafcb0965f18de2, type: 3}
  - {fileID: 21300000, guid: b662f34463ad1764396707d73b63b3da, type: 3}
  - {fileID: 21300000, guid: 28c4f1545a966c64a9c32090c3a9a9ed, type: 3}
  - {fileID: 21300000, guid: 38f76064b6dde5949ab049d3eccfa301, type: 3}
  - {fileID: 21300000, guid: 16307d642b30a714ba724707020124fe, type: 3}
  - {fileID: 21300000, guid: f923ef6493e7ebe4dba04b4bc5aebbbd, type: 3}
  - {fileID: 21300000, guid: f8c4627494bf28a43a9466cb57517948, type: 3}
  - {fileID: 21300000, guid: c8c81a749b49cdb49a94ccccb408449b, type: 3}
  - {fileID: 21300000, guid: 114fe284b9198174dabde2562a3c40b2, type: 3}
  - {fileID: 21300000, guid: fe244b840af4e474281e5c64aa2b160e, type: 3}
  - {fileID: 21300000, guid: 320fd4947ebd3534b807c862a7bb10d3, type: 3}
  - {fileID: 21300000, guid: 6a6dcf9497833c74eb693e4672d02024, type: 3}
  - {fileID: 21300000, guid: 5168c0a482b270346b6d54e8da68785c, type: 3}
  - {fileID: 21300000, guid: eff64ca47cb7d9346950ff370eac49f5, type: 3}
  - {fileID: 21300000, guid: 8b418fa4548d32f4fb042cf420a0db11, type: 3}
  - {fileID: 21300000, guid: 0fdf3db4c1cc5264fb2b0835df568088, type: 3}
  - {fileID: 21300000, guid: 3dd610d499bbae640ae4469215cf2eaa, type: 3}
  - {fileID: 21300000, guid: 6710b6d42b5b29648b94fdcad044e64d, type: 3}
  - {fileID: 21300000, guid: f459b5e49de76fc4894a5a6acb7685c8, type: 3}
  - {fileID: 21300000, guid: f8ce78e4ab1ad6641bf098b163679b4c, type: 3}
  - {fileID: 21300000, guid: 9ca42de4e68992147acd40f815693f4d, type: 3}
  - {fileID: 21300000, guid: c780a3f45c0c0544ba1013a3176a488c, type: 3}
  - {fileID: 21300000, guid: 8a38d7f4ca7bbe54bab011834c7230f8, type: 3}
  - {fileID: 21300000, guid: 7bd4e205ab2240b4391f04def9e8fad9, type: 3}
  - {fileID: 21300000, guid: 8255aa057a9655142bd6217692a4b7d8, type: 3}
  - {fileID: 21300000, guid: 8f75b915133cc194d9044c9c29a9ebc8, type: 3}
  - {fileID: 21300000, guid: 79f4b025085a9344a82ca41d9b218542, type: 3}
  - {fileID: 21300000, guid: 378df225e6d12da4a8be67d18cb527cf, type: 3}
  - {fileID: 21300000, guid: 988b74257ad04ad4ea3d7b6b0cddfaf4, type: 3}
  - {fileID: 21300000, guid: 97593e2547d8f664f84cd8dda0ce7eb9, type: 3}
  - {fileID: 21300000, guid: 5e4faa3548005784f8e20e48e8b06dfa, type: 3}
  - {fileID: 21300000, guid: 78d68f355e994d843aa20128d53d3f65, type: 3}
  - {fileID: 21300000, guid: 52632b45c079c0e45922be158afbc835, type: 3}
  - {fileID: 21300000, guid: dbf625658821ef044abf31800e42b022, type: 3}
  - {fileID: 21300000, guid: fb62e3753ee2a5d4e81cb55355f9efa9, type: 3}
  - {fileID: 21300000, guid: bda60285f6dbbba42a63a140aab2d361, type: 3}
  - {fileID: 21300000, guid: 1e43f49572be61c4a8513f3efa80f886, type: 3}
  - {fileID: 21300000, guid: a2cec9a531ee2a446be49db815370f57, type: 3}
  - {fileID: 21300000, guid: 7aaaf1b5e726fca41a41481a621909e2, type: 3}
  - {fileID: 21300000, guid: aef416b5b8f72994a8178b954084ab6a, type: 3}
  - {fileID: 21300000, guid: 45f3fab526b79ad4081ffc392484a095, type: 3}
  - {fileID: 21300000, guid: 4e9abeb59ac141f4f845ace8d5ce5723, type: 3}
  - {fileID: 21300000, guid: 673a1bd5eb7836744a8dcb3c8d084e05, type: 3}
  - {fileID: 21300000, guid: e4a366e5aa4f43145a6f7bfa0ebdb4f6, type: 3}
  - {fileID: 21300000, guid: 74dd8ce528eb39847bd50031a4127dfd, type: 3}
  - {fileID: 21300000, guid: 4c704ff504b15134fb8d646aa726cddd, type: 3}
  - {fileID: 21300000, guid: 78c54c0630da9864eab2597bec565e5a, type: 3}
  - {fileID: 21300000, guid: 8df853169ba9fa246be65c267a3986fa, type: 3}
  - {fileID: 21300000, guid: 605bc81686549a14ebc9a9b1eb6883de, type: 3}
  - {fileID: 21300000, guid: 155e7036d7176d74185246904f32eeb7, type: 3}
  - {fileID: 21300000, guid: cbd80846ff4d0254192aa05c6abc398c, type: 3}
  - {fileID: 21300000, guid: 334c99464429b364e8da7ae7ae95c98a, type: 3}
  - {fileID: 21300000, guid: 271b2f46b1f3d0c45b580e3ae38a8ad3, type: 3}
  - {fileID: 21300000, guid: 82a6f566bac3e4446a0ae09f0e227f17, type: 3}
  - {fileID: 21300000, guid: eeaf1a8649278f34280c981c5578ed29, type: 3}
  - {fileID: 21300000, guid: f9783f860016ca04b859ce35dc8e4101, type: 3}
  - {fileID: 21300000, guid: 4104469684d843a4a88baec4eda3a8cc, type: 3}
  - {fileID: 21300000, guid: efd9c0a6e703ac64699267b5c7e99fc5, type: 3}
  - {fileID: 21300000, guid: a7ce72a61d282da4ab770dbfee2a9950, type: 3}
  - {fileID: 21300000, guid: 4ede1cb6d4f663f4c85453c9fc8b3335, type: 3}
  - {fileID: 21300000, guid: ee5636c686619d3468283a9697d47eff, type: 3}
  - {fileID: 21300000, guid: 57ac96c6c428526409dbf97e2613d735, type: 3}
  - {fileID: 21300000, guid: 87b6cec605571b540b3ab4e2ec15d4e3, type: 3}
  - {fileID: 21300000, guid: ea9202d6ac6c74d439632c1d3c57e45a, type: 3}
  - {fileID: 21300000, guid: 000e7cd629f5dcd45b69b739f7663866, type: 3}
  - {fileID: 21300000, guid: a42da2f60179e8a4b94fbea0495b255f, type: 3}
  - {fileID: 21300000, guid: fb87a5f60cb1d6841ac88cce976a0427, type: 3}
  - {fileID: 21300000, guid: 4e1f520706e944a4bbf74044fd946e6e, type: 3}
  - {fileID: 21300000, guid: d27f321728e967246ae78a31eaff0c54, type: 3}
  - {fileID: 21300000, guid: 42e918178984d264a82f607361c9cf8f, type: 3}
  - {fileID: 21300000, guid: 0ae61c37e523c9b4faaccb72dbf945f0, type: 3}
  - {fileID: 21300000, guid: 124bed47c9d372f43a7aa932a32c20c8, type: 3}
  - {fileID: 21300000, guid: d0b25f47eff8f5646a1a6a2bc9f6859f, type: 3}
  - {fileID: 21300000, guid: 141d975730054274aabf4744a4d43eea, type: 3}
  - {fileID: 21300000, guid: a58302672aa961a49a745d01da1b6146, type: 3}
  - {fileID: 21300000, guid: f80c9a67b696f2e4291ab4d029090f56, type: 3}
  - {fileID: 21300000, guid: c293e377f59f59a4187bcc1b38934438, type: 3}
  - {fileID: 21300000, guid: ae340777cdd0dcc4d8309b5d8aa455a6, type: 3}
  - {fileID: 21300000, guid: 52f62c7712267a84295606e5ce206f17, type: 3}
  - {fileID: 21300000, guid: 78030f77539b20249b9f4c68beec4ba7, type: 3}
  - {fileID: 21300000, guid: 71dd4087afa1a31409c618309cec0ae5, type: 3}
  - {fileID: 21300000, guid: 007630975e57f46479279db0d2010870, type: 3}
  - {fileID: 21300000, guid: d966f4970ccdcd140af8a721d9275797, type: 3}
  - {fileID: 21300000, guid: 7c9291a72de7e96498b4808567c0bd3b, type: 3}
  - {fileID: 21300000, guid: 9b533ab7b3cffa5449e1c178df47ccd7, type: 3}
  - {fileID: 21300000, guid: bf47cbb7e47d4c6498141be91f9106d1, type: 3}
  - {fileID: 21300000, guid: f8f73fe74b1b95f48891483b7481b1e1, type: 3}
  - {fileID: 21300000, guid: 77bf72f7ff31b6c46abc2dca57f489e9, type: 3}
  - {fileID: 21300000, guid: 391d311863a0e064ea07734ad113b60f, type: 3}
  - {fileID: 21300000, guid: 9c73f2189e18e4f4db71bf007184d4ef, type: 3}
  - {fileID: 21300000, guid: 2ae6f22849ff3d344a149f460040a44b, type: 3}
  - {fileID: 21300000, guid: cf368138f98024a4c98df975216f844b, type: 3}
  - {fileID: 21300000, guid: 6f95953833cc87b40b48f86bb14b7c14, type: 3}
  - {fileID: 21300000, guid: 9ab0d358ede4c0e4fbc0cc3f4f9b2d97, type: 3}
  - {fileID: 21300000, guid: f76c56683fc049f4b8fe858baa6596fc, type: 3}
  - {fileID: 21300000, guid: 2d083a683723db746905c015cd71668b, type: 3}
  - {fileID: 21300000, guid: 6d51aa682e13c9c4187bf4da80a06cc0, type: 3}
  - {fileID: 21300000, guid: 594ae0b8cd404eb4990811a72be75a89, type: 3}
  - {fileID: 21300000, guid: 2c40c7c8413ca5d408c8d6056d3741f9, type: 3}
  - {fileID: 21300000, guid: 2963c8c8c4f5b0241bfe2fbb682de9ba, type: 3}
  - {fileID: 21300000, guid: 024e20d8492ee1041ad93de9ed63aa00, type: 3}
  - {fileID: 21300000, guid: 9ef23ae8b3b13864c9cb7b0e44aa909d, type: 3}
  - {fileID: 21300000, guid: 55bbe72951c6623428f8eab0663d7d3c, type: 3}
  - {fileID: 21300000, guid: 0482ed2902251504583c1a87aecf5046, type: 3}
  - {fileID: 21300000, guid: ecb0f639af0767449a2364e08dc9dfb1, type: 3}
  - {fileID: 21300000, guid: 5ec32649934239d4ebf8c407948d2645, type: 3}
  - {fileID: 21300000, guid: b45d83892135ba440abfcb013dd9c652, type: 3}
  - {fileID: 21300000, guid: 904ce59938a46af4781f3e6ba8be8d43, type: 3}
  - {fileID: 21300000, guid: 4973f699a65075b4fb7b089c43300b09, type: 3}
  - {fileID: 21300000, guid: 1a49da999fd78884cba35017a70b9f5a, type: 3}
  - {fileID: 21300000, guid: 74eb86b93ec280943a6fc7c98c2ebc8c, type: 3}
  - {fileID: 21300000, guid: 62b19cb92308641498cd43ed02970204, type: 3}
  - {fileID: 21300000, guid: 2dc7afc9771173e4ead1e38fe9d67e0a, type: 3}
  - {fileID: 21300000, guid: da3d17f98d5217b428be9f399c1aa582, type: 3}
  - {fileID: 21300000, guid: 1bdbdcf958077fd4fa4666516a3be58c, type: 3}
  - {fileID: 21300000, guid: 572cf00a6ad3ba048a45d67c45fbb516, type: 3}
  - {fileID: 21300000, guid: 1739080a49b66f340ac17c98e1bfa331, type: 3}
  - {fileID: 21300000, guid: 1e59e21a1bd69944eb61fd33b8a7a7a3, type: 3}
  - {fileID: 21300000, guid: 79e42a1a62297984bbf637af74045ab8, type: 3}
  - {fileID: 21300000, guid: 7753602a1f1546b48a6d69f8c4c87617, type: 3}
  - {fileID: 21300000, guid: 75dc953a8f5e11148a08fa0634cc0e30, type: 3}
  - {fileID: 21300000, guid: d1f6d84a1deff4549970d4135e776355, type: 3}
  - {fileID: 21300000, guid: 21449c4a1dec79b469ac4716e5d5d113, type: 3}
  - {fileID: 21300000, guid: e735de4a94fd75d4b9baec3979b3c15e, type: 3}
  - {fileID: 21300000, guid: 1137ef4af2c92e24a85c64c312c2b45b, type: 3}
  - {fileID: 21300000, guid: e2ec837a40624344cb8d1eeedd51fca1, type: 3}
  - {fileID: 21300000, guid: a9e5e47a65044ee4591bdecf4f20f539, type: 3}
  - {fileID: 21300000, guid: 151e957a1f2a40e47aa53a867371e8ec, type: 3}
  - {fileID: 21300000, guid: 4874a78a9bf721c43991443ff913c245, type: 3}
  - {fileID: 21300000, guid: 4ff2eb8ac7e3a2542b3d028089051f36, type: 3}
  - {fileID: 21300000, guid: d407c49a10cd5cc46a8f077a82ae173c, type: 3}
  - {fileID: 21300000, guid: 421cd1aac304e954e8552bdf9be4bfbb, type: 3}
  - {fileID: 21300000, guid: 2da7d6ca7fedc9e4582cd5c71a86a64a, type: 3}
  - {fileID: 21300000, guid: 553da9ca291b9c64d90da8b04d943724, type: 3}
  - {fileID: 21300000, guid: e9e59feae3a67b3419d5ed342a089459, type: 3}
  - {fileID: 21300000, guid: a6ccb90b077768443ab9da86470ad6c8, type: 3}
  - {fileID: 21300000, guid: fecfad1bad3f6ff4c91857ae25a70cd8, type: 3}
  - {fileID: 21300000, guid: 2b3a842b17188934b8b4e12a88238ebd, type: 3}
  - {fileID: 21300000, guid: 236a384bd7395314c86ad4619144b988, type: 3}
  - {fileID: 21300000, guid: 9b189a4bd2cf4b04cadf214647f8d4d0, type: 3}
  - {fileID: 21300000, guid: c817db5bb43a9c848850005634b73844, type: 3}
  - {fileID: 21300000, guid: be90527bad2507545a06eb059de613ec, type: 3}
  - {fileID: 21300000, guid: 12c3467b98356d74cbfc82204cc58ee0, type: 3}
  - {fileID: 21300000, guid: 0588729b4afe1284bbcf05bda9d387df, type: 3}
  - {fileID: 21300000, guid: 33da75ab5c8759b499c78c10d491d193, type: 3}
  - {fileID: 21300000, guid: 16481fab906d1ff4890ced6a25c1ea18, type: 3}
  - {fileID: 21300000, guid: 365155dbc6b9e6947a40a425179ea770, type: 3}
  - {fileID: 21300000, guid: a4105bdbe76106e4d93f1dcc63c6f014, type: 3}
  - {fileID: 21300000, guid: 068c0edbdde0fac4880b5d85ac37ce7c, type: 3}
  - {fileID: 21300000, guid: 5d4594ebab7ffb340a0b055b67bc19af, type: 3}
  - {fileID: 21300000, guid: dcdb16fb4b5a8804289b43adf2e09331, type: 3}
  - {fileID: 21300000, guid: f9cf8efb9afa60b4e997c086c15c9cc4, type: 3}
  - {fileID: 21300000, guid: a9f1f60cfe26aa64b8508464c400b6cc, type: 3}
  - {fileID: 21300000, guid: fa859f0c0ac48a6469116298b44476dd, type: 3}
  - {fileID: 21300000, guid: 2299741c73d728645bae3cb4aa0fe4f2, type: 3}
  - {fileID: 21300000, guid: 159ca22c1d1cf52459a293e1a4fc8e93, type: 3}
  - {fileID: 21300000, guid: f0ac342c845fd9b43a5f1f973c34cff5, type: 3}
  - {fileID: 21300000, guid: 9ef5383c0d22cec41af88eecad8e99cd, type: 3}
  - {fileID: 21300000, guid: 6ceece4c881bbbb4c867f9877b2106d4, type: 3}
  - {fileID: 21300000, guid: 987c0b9c47bac6948bda3ae4c44d917c, type: 3}
  - {fileID: 21300000, guid: c76db2bc5d3f47a4cb3e7df4dcdc224a, type: 3}
  - {fileID: 21300000, guid: a274e5dc91ce4084787c02e212fc5d73, type: 3}
  - {fileID: 21300000, guid: f3c08ddc253f124418dc4f53d578a0ab, type: 3}
  - {fileID: 21300000, guid: 4509eddcb3a051c49883e23566743cba, type: 3}
  - {fileID: 21300000, guid: e43442ecd85e0334689a7f4d6cc7cdc6, type: 3}
  - {fileID: 21300000, guid: cef933eca5ad1b340b385a76660b6f29, type: 3}
  - {fileID: 21300000, guid: 4677a4ec0c9612743846b2aeb6c9afb2, type: 3}
  - {fileID: 21300000, guid: 721153fca54e96e4c8ca71db16bf335c, type: 3}
  - {fileID: 21300000, guid: ad44840d6a66e5f48b510c13a56efe6f, type: 3}
  - {fileID: 21300000, guid: e9684e0d6e3f09d4aa088154f26e6b70, type: 3}
  - {fileID: 21300000, guid: 9cfe242dc3e626048a5f945973d0719e, type: 3}
  - {fileID: 21300000, guid: f114104d2a85d33499e7faf99a17c752, type: 3}
  - {fileID: 21300000, guid: e5d41f4de29823c40ac16084c7c7d173, type: 3}
  - {fileID: 21300000, guid: e3c3335dda977ff45a6af3b871b6c47d, type: 3}
  - {fileID: 21300000, guid: 1787f06dc39e31b45b9ccb4d34ea5a70, type: 3}
  - {fileID: 21300000, guid: 7444029d5529cf745a2f43af1c8476be, type: 3}
  - {fileID: 21300000, guid: 89e3c39d014c1184eb945ffa2100acba, type: 3}
  - {fileID: 21300000, guid: 7da9979daa38741449aa19db47aa10b7, type: 3}
  - {fileID: 21300000, guid: e1d266ad60a824b499c2ce2c7c15cc51, type: 3}
  - {fileID: 21300000, guid: a4c3f8bd9892e744fbe13902d8d4059d, type: 3}
  - {fileID: 21300000, guid: 392ff4cdb8793304eb3fbcc1324212a9, type: 3}
  - {fileID: 21300000, guid: b19dafcd5d8b3954da2d268f79ae3392, type: 3}
  - {fileID: 21300000, guid: 9f4f02ed25f354b4e852a5dead8785bb, type: 3}
  - {fileID: 21300000, guid: aede01fd63aec134389f4aa768706a74, type: 3}
  - {fileID: 21300000, guid: a4a31f0e57472c343be08b9af30f3028, type: 3}
  - {fileID: 21300000, guid: a277393e4c200194c82fe515ee66ebc2, type: 3}
  - {fileID: 21300000, guid: c309dd3e3ca4ce442b79a1fe46b46ce2, type: 3}
  - {fileID: 21300000, guid: ef0ba96ea57662149a5cff0ec19446a8, type: 3}
  - {fileID: 21300000, guid: 35308e6ec60ef0147b856ae97985f6b3, type: 3}
  - {fileID: 21300000, guid: 1ad5a09e20813004fac38967777059eb, type: 3}
  - {fileID: 21300000, guid: c89a15ae6b1e4c24a85bf01672874c21, type: 3}
  - {fileID: 21300000, guid: cce772be4b60d6d44bb1dd2608061166, type: 3}
  - {fileID: 21300000, guid: bd77e4be129286b439c833fa878ef882, type: 3}
  - {fileID: 21300000, guid: ed7338be7d7972f4e9b268aa2c80c932, type: 3}
  - {fileID: 21300000, guid: 56c13fce74f0db946b1d53c4dc5e85d3, type: 3}
  - {fileID: 21300000, guid: ab798ade2be609447b4877818cd9c8b0, type: 3}
  - {fileID: 21300000, guid: 8173a1feeaa368343a9d973ebf6d6914, type: 3}
  - {fileID: 21300000, guid: a158c3fe05e86894eb6f757429939a7f, type: 3}
  - {fileID: 21300000, guid: 9363b8fee82d04443afb1a38ac4b2fbf, type: 3}
  - {fileID: 21300000, guid: d0140bfebf935e748a5686d070eda218, type: 3}
  - {fileID: 21300000, guid: 3b6c6cfeac58f084a97d8beac71b9487, type: 3}
  - {fileID: 21300000, guid: 269e6e0f33190bc4ca6324ebf818ad40, type: 3}
  - {fileID: 21300000, guid: 3519301f61c4bfa4a9b1fde543c49593, type: 3}
  - {fileID: 21300000, guid: 78f7f51f66b1a0349b28d1aaa89df52f, type: 3}
  - {fileID: 21300000, guid: 3883102f634134f4688c3331caa9c119, type: 3}
  - {fileID: 21300000, guid: e78d914ff9d091c4189060ddb64b54fa, type: 3}
  - {fileID: 21300000, guid: 2df4947f68b9e914f83ba57e1f38706e, type: 3}
  - {fileID: 21300000, guid: c210987fdf93ec347a1c75c52565751a, type: 3}
  - {fileID: 21300000, guid: c9802d7fd69d3844da4d9f9744b630ee, type: 3}
  - {fileID: 21300000, guid: e14634bfb850c8243bfdf6920ee4a7ea, type: 3}
  - {fileID: 21300000, guid: b72857dfbb809cb46afc7fcdfdd2e274, type: 3}
  - {fileID: 21300000, guid: 3b99bddff9ebc2546aa79a60e38db4d7, type: 3}
  - {fileID: 21300000, guid: eb5a4fdf9e0b8484dbb251f4eb5a5ac1, type: 3}
  - {fileID: 21300000, guid: f6fc88ef7fb4f854da6f998a775ec608, type: 3}
  - {fileID: 21300000, guid: a8a104ff2f0b7a04d8c87c27f9724ae6, type: 3}
  - {fileID: 21300000, guid: e518f9ff2027bb34e9c11c575445018b, type: 3}
  - {fileID: 21300000, guid: 81266aff61d554443867f3e1ffc6647c, type: 3}
  m_PackedSpriteNamesToIndex:
  - 809
  - 929
  - 941
  - 804
  - 725
  - 823
  - 881
  - 708
  - 810
  - 707
  - 902
  - 755
  - 995
  - 808
  - 827
  - 717
  - 992
  - 775
  - 961
  - 765
  - 888
  - 965
  - 732
  - 818
  - 918
  - 879
  - 705
  - 814
  - 933
  - 826
  - 789
  - 939
  - 991
  - 841
  - 824
  - 962
  - 734
  - 736
  - 792
  - 898
  - 994
  - 811
  - 927
  - 990
  - 715
  - 914
  - 867
  - 788
  - 737
  - 976
  - 893
  - 886
  - 857
  - 761
  - 777
  - 890
  - 907
  - 799
  - 887
  - 983
  - 706
  - 813
  - 859
  - 980
  - 861
  - 908
  - 940
  - 753
  - 873
  - 798
  - 999
  - 846
  - 772
  - 984
  - 960
  - 840
  - 712
  - 769
  - 752
  - 746
  - 760
  - 801
  - 946
  - 912
  - 974
  - 843
  - 957
  - 968
  - 794
  - 882
  - 953
  - 835
  - 916
  - 950
  - 964
  - 782
  - 915
  - 963
  - 805
  - 713
  - 925
  - 731
  - 884
  - 733
  - 781
  - 906
  - 982
  - 856
  - 832
  - 880
  - 716
  - 821
  - 828
  - 791
  - 945
  - 768
  - 970
  - 738
  - 822
  - 847
  - 998
  - 891
  - 703
  - 767
  - 924
  - 909
  - 838
  - 759
  - 975
  - 710
  - 959
  - 727
  - 864
  - 985
  - 749
  - 816
  - 812
  - 748
  - 743
  - 878
  - 981
  - 758
  - 722
  - 895
  - 839
  - 987
  - 848
  - 817
  - 988
  - 930
  - 917
  - 910
  - 723
  - 751
  - 875
  - 776
  - 785
  - 728
  - 954
  - 966
  - 866
  - 770
  - 858
  - 756
  - 897
  - 956
  - 724
  - 739
  - 762
  - 935
  - 704
  - 900
  - 763
  - 928
  - 786
  - 797
  - 726
  - 923
  - 889
  - 825
  - 872
  - 967
  - 773
  - 754
  - 896
  - 863
  - 833
  - 842
  - 865
  - 958
  - 820
  - 793
  - 779
  - 905
  - 948
  - 764
  - 913
  - 745
  - 996
  - 815
  - 868
  - 874
  - 904
  - 973
  - 854
  - 757
  - 855
  - 951
  - 853
  - 979
  - 740
  - 720
  - 784
  - 949
  - 714
  - 778
  - 774
  - 741
  - 921
  - 735
  - 894
  - 803
  - 834
  - 806
  - 989
  - 730
  - 744
  - 934
  - 911
  - 721
  - 883
  - 877
  - 876
  - 807
  - 718
  - 986
  - 790
  - 978
  - 903
  - 796
  - 795
  - 850
  - 819
  - 787
  - 783
  - 750
  - 937
  - 845
  - 901
  - 947
  - 837
  - 952
  - 860
  - 862
  - 849
  - 836
  - 938
  - 943
  - 944
  - 719
  - 885
  - 977
  - 870
  - 919
  - 869
  - 702
  - 899
  - 852
  - 802
  - 747
  - 892
  - 709
  - 780
  - 711
  - 800
  - 931
  - 701
  - 729
  - 997
  - 871
  - 932
  - 830
  - 993
  - 969
  - 926
  - 831
  - 942
  - 742
  - 971
  - 766
  - 771
  - 955
  - 844
  - 851
  - 920
  - 922
  - 936
  - 972
  - 829
  m_RenderDataMap: {}
  m_Tag: SpritesAtlasC
  m_IsVariant: 0
